[
  {
    "id": 1,
    "question_type": "TF",
    "choice": "T"
  },
  {
    "id": 2,
    "question_type": "TF",
    "choice": "F"
  },
  {
    "id": 3,
    "question_type": "L4",
    "choice": 1
  },
  {
    "id": 4,
    "question_type": "L4",
    "choice": 2
  },
  {
    "id": 5,
    "question_type": "L4",
    "choice": 3
  },
  {
    "id": 6,
    "question_type": "L4",
    "choice": 4
  },
  {
    "id": 7,
    "question_type": "L5",
    "choice": 1
  },
  {
    "id": 8,
    "question_type": "L5",
    "choice": 2
  },
  {
    "id": 9,
    "question_type": "L5",
    "choice": 3
  },
  {
    "id": 10,
    "question_type": "L5",
    "choice": 4
  },
  {
    "id": 11,
    "question_type": "L5",
    "choice": 5
  }
]